[gd_scene load_steps=5 format=2]

[ext_resource path="res://LevelSelect.gd" type="Script" id=1]
[ext_resource path="res://assets/kenney_physics_assets/PNG/Backgrounds/colored_grass.png" type="Texture" id=2]
[ext_resource path="res://Main.tscn" type="PackedScene" id=3]
[ext_resource path="res://assets/one.ogg" type="AudioStream" id=4]

[node name="LevelSelect" type="Node"]
script = ExtResource( 1 )

[node name="Background" type="TextureRect" parent="."]
margin_left = -9.0
margin_top = -18.0
margin_right = 1282.0
margin_bottom = 1006.0
texture = ExtResource( 2 )
stretch_mode = 2

[node name="Panel" type="Panel" parent="."]
pause_mode = 2
margin_left = 274.0
margin_top = 129.0
margin_right = 1019.0
margin_bottom = 595.0

[node name="MarginContainer" type="MarginContainer" parent="Panel"]
margin_top = 10.0

[node name="VBoxContainer" type="VBoxContainer" parent="Panel/MarginContainer"]
margin_right = 70.0
margin_bottom = 18.0

[node name="Label" type="Label" parent="Panel/MarginContainer/VBoxContainer"]
margin_right = 70.0
margin_bottom = 14.0
size_flags_horizontal = 3
text = "ProgBlocks"
align = 1

[node name="GridContainer" type="GridContainer" parent="Panel/MarginContainer/VBoxContainer"]
margin_top = 18.0
margin_right = 70.0
margin_bottom = 18.0

[node name="Main" parent="." instance=ExtResource( 3 )]
pause_mode = 1

[node name="AudioStreamPlayer" type="AudioStreamPlayer" parent="."]
stream = ExtResource( 4 )
autoplay = true
