[gd_scene load_steps=3 format=2]

[ext_resource path="res://ui/CommandEditPanel.tscn" type="PackedScene" id=1]
[ext_resource path="res://ui/CMoveEditor.gd" type="Script" id=2]

[node name="CMoveEditor" instance=ExtResource( 1 )]

script = ExtResource( 2 )

[node name="Layout" parent="." index="0"]

margin_bottom = 63.0

[node name="Label" parent="Layout/MarginContainer/Header" index="0"]

margin_right = 35.0
text = "Move"

[node name="Spacer" parent="Layout/MarginContainer/Header" index="1"]

margin_left = 39.0

[node name="HBoxContainer" type="HBoxContainer" parent="Layout" index="2"]

anchor_left = 0.0
anchor_top = 0.0
anchor_right = 0.0
anchor_bottom = 0.0
margin_top = 32.0
margin_right = 202.0
margin_bottom = 56.0
rect_pivot_offset = Vector2( 0, 0 )
rect_clip_content = false
mouse_filter = 1
mouse_default_cursor_shape = 0
size_flags_horizontal = 1
size_flags_vertical = 1
alignment = 0

[node name="Label" type="Label" parent="Layout/HBoxContainer" index="0"]

anchor_left = 0.0
anchor_top = 0.0
anchor_right = 0.0
anchor_bottom = 0.0
margin_top = 5.0
margin_right = 53.0
margin_bottom = 19.0
rect_pivot_offset = Vector2( 0, 0 )
rect_clip_content = false
mouse_filter = 2
mouse_default_cursor_shape = 0
size_flags_horizontal = 1
size_flags_vertical = 4
text = "Impulse"
percent_visible = 1.0
lines_skipped = 0
max_lines_visible = -1

[node name="Spacer" type="Container" parent="Layout/HBoxContainer" index="1"]

anchor_left = 0.0
anchor_top = 0.0
anchor_right = 0.0
anchor_bottom = 0.0
margin_left = 57.0
margin_right = 78.0
margin_bottom = 24.0
rect_pivot_offset = Vector2( 0, 0 )
rect_clip_content = false
mouse_filter = 0
mouse_default_cursor_shape = 0
size_flags_horizontal = 3
size_flags_vertical = 1
_sections_unfolded = [ "Size Flags" ]

[node name="EntryX" type="LineEdit" parent="Layout/HBoxContainer" index="2"]

anchor_left = 0.0
anchor_top = 0.0
anchor_right = 0.0
anchor_bottom = 0.0
margin_left = 82.0
margin_right = 140.0
margin_bottom = 24.0
rect_pivot_offset = Vector2( 0, 0 )
rect_clip_content = false
focus_mode = 2
mouse_filter = 0
mouse_default_cursor_shape = 1
size_flags_horizontal = 1
size_flags_vertical = 1
focus_mode = 2
context_menu_enabled = true
placeholder_text = "X"
placeholder_alpha = 0.6
caret_blink = false
caret_blink_speed = 0.65
caret_position = 0
_sections_unfolded = [ "Placeholder" ]

[node name="EntryY" type="LineEdit" parent="Layout/HBoxContainer" index="3"]

anchor_left = 0.0
anchor_top = 0.0
anchor_right = 0.0
anchor_bottom = 0.0
margin_left = 144.0
margin_right = 202.0
margin_bottom = 24.0
rect_pivot_offset = Vector2( 0, 0 )
rect_clip_content = false
focus_mode = 2
mouse_filter = 0
mouse_default_cursor_shape = 1
size_flags_horizontal = 1
size_flags_vertical = 1
focus_mode = 2
context_menu_enabled = true
placeholder_text = "Y"
placeholder_alpha = 0.6
caret_blink = false
caret_blink_speed = 0.65
caret_position = 0
_sections_unfolded = [ "Placeholder" ]


