[gd_scene load_steps=4 format=2]

[ext_resource path="res://ui/CommandEditPanel.tscn" type="PackedScene" id=1]
[ext_resource path="res://ui/COnCollideEditor.gd" type="Script" id=2]
[ext_resource path="res://ui/EmbeddedCEditor.tscn" type="PackedScene" id=3]

[node name="COnCollideEditor" instance=ExtResource( 1 )]

script = ExtResource( 2 )

[node name="Layout" parent="." index="0"]

margin_bottom = 59.0

[node name="MarginContainer" parent="Layout" index="0"]

editor/display_folded = true

[node name="Label" parent="Layout/MarginContainer/Header" index="0"]

margin_right = 63.0
text = "OnCollide"

[node name="Spacer" parent="Layout/MarginContainer/Header" index="1"]

margin_left = 67.0

[node name="EmbeddedCEditor" parent="Layout" index="2" instance=ExtResource( 3 )]

margin_top = 32.0
margin_bottom = 52.0
parent = NodePath("..")


